<svg width="51" height="50" viewBox="0 0 51 50" fill="none" xmlns="http://www.w3.org/2000/svg">
<circle cx="25.25" cy="25" r="25" fill="#FFEFEE"/>
<path fill-rule="evenodd" clip-rule="evenodd" d="M18.7844 12C16.8056 12 15.2015 13.6408 15.2014 15.6649C15.2014 17.0616 15.9772 18.3369 17.2023 18.9536L12.9885 21.4294C12.1615 21.9153 12.0911 22.8576 12.4722 23.5559C12.8533 24.2543 13.7848 24.5345 14.4974 24.1158L25.2488 17.7987L36.0003 24.1158C36.8272 24.6017 37.6582 24.189 38.0565 23.5008C38.4548 22.8127 38.2217 21.8481 37.5091 21.4294L26.2584 14.8187C25.8992 14.6077 25.612 14.4797 25.3042 14.4695C24.9963 14.4594 24.6677 14.567 24.2256 14.8268L22.3586 15.9239C22.3645 15.8377 22.3674 15.7513 22.3674 15.6649C22.3674 13.6408 20.7633 12 18.7844 12H18.7844ZM25.2488 18.723L14.9318 24.8154V36.1806C14.9318 37.1886 15.7251 38 16.7106 38H34.1744C35.1598 38 35.9534 37.1886 35.9534 36.1806V24.9427L25.2488 18.723Z" fill="#FF3347"/>
<path d="M25.3027 20.9628C20.5373 20.9628 16.9631 24.6413 16.9631 29.1772C16.9631 33.7582 20.4932 37.3916 25.2586 37.3916C30.024 37.3916 33.5978 33.7131 33.5978 29.1772C33.5978 24.5962 30.0681 20.9628 25.3027 20.9628ZM25.2485 25.0716C27.5184 25.0716 29.067 26.981 29.067 29.1725C29.067 31.4075 27.561 33.2735 25.2911 33.2735C23.0425 33.2735 21.4936 31.3641 21.4936 29.1725C21.4936 26.9376 22.9999 25.0716 25.2485 25.0716Z" fill="white"/>
<path fill-rule="evenodd" clip-rule="evenodd" d="M18.4328 16.5114C18.2279 16.5114 18.0631 16.68 18.0631 16.8896V22.0422L19.4937 21.1972V16.8896C19.4937 16.68 19.3289 16.5114 19.124 16.5114H18.4328ZM17.1269 13.8115C16.7436 14.2013 16.5421 14.7628 16.5421 15.3552C16.5421 15.9476 16.7579 16.495 17.1269 16.8989C17.2341 17.0162 17.4356 17.1398 17.6058 17.0146C17.7337 16.9205 17.7794 16.7452 17.5376 16.4815C17.2709 16.1904 17.1263 15.7874 17.1263 15.3552C17.1263 14.923 17.2709 14.52 17.5376 14.2289C17.7794 13.9652 17.7377 13.7841 17.6058 13.6958C17.4338 13.5806 17.2484 13.688 17.1269 13.8115ZM17.8824 14.4066C17.6032 14.6631 17.5011 15.0392 17.5011 15.3552C17.5011 15.6712 17.6195 16.0298 17.8824 16.3038C18.0004 16.4269 18.1784 16.4942 18.329 16.3222C18.4436 16.1913 18.3656 16.0488 18.2158 15.8889C18.1011 15.7665 18.026 15.5767 18.026 15.3552C18.026 15.1337 18.1011 14.9439 18.2158 14.8215C18.3656 14.6616 18.4479 14.515 18.329 14.3882C18.1764 14.2255 18.0121 14.2874 17.8824 14.4066ZM19.117 15.3636C19.117 15.5401 18.9771 15.6831 18.8046 15.6831C18.632 15.6831 18.4922 15.5401 18.4922 15.3636C18.4922 15.1871 18.632 15.0441 18.8046 15.0441C18.9771 15.0441 19.117 15.1871 19.117 15.3636ZM20.4783 13.8116C20.8616 14.2014 21.0631 14.7629 21.0631 15.3553C21.0631 15.9476 20.8473 16.495 20.4783 16.8989C20.3711 17.0163 20.1696 17.1399 19.9994 17.0147C19.8715 16.9205 19.8258 16.7453 20.0676 16.4816C20.3344 16.1905 20.4789 15.7875 20.4789 15.3553C20.4789 14.923 20.3344 14.52 20.0676 14.229C19.8258 13.9652 19.8675 13.7841 19.9994 13.6958C20.1714 13.5807 20.3568 13.6881 20.4783 13.8116ZM19.7228 14.4067C20.002 14.6632 20.1041 15.0393 20.1041 15.3553C20.1041 15.6712 19.9857 16.0299 19.7228 16.3039C19.6048 16.427 19.4268 16.4943 19.2762 16.3222C19.1616 16.1913 19.2396 16.0489 19.3894 15.889C19.5041 15.7665 19.5792 15.5768 19.5792 15.3553C19.5792 15.1337 19.5041 14.944 19.3894 14.8215C19.2396 14.6617 19.1573 14.5151 19.2762 14.3883C19.4288 14.2256 19.5931 14.2875 19.7228 14.4067Z" fill="white"/>
</svg>
