<svg width="51" height="50" viewBox="0 0 51 50" fill="none" xmlns="http://www.w3.org/2000/svg">
<circle cx="25.25" cy="25" r="25" fill="#CFFFE1"/>
<path d="M25.3721 39.2352C25.1973 39.2366 25.0225 39.1951 24.8661 39.1134L19.7822 36.4831C18.3382 35.7341 17.2097 34.8952 16.3285 33.9178C14.3998 31.7803 13.3282 29.0365 13.3097 26.1902L13.25 16.8221C13.2443 15.7409 13.9408 14.7704 14.984 14.4063L24.3189 11.1503C24.8732 10.9537 25.4915 10.9495 26.0557 11.1406L35.4262 14.2845C36.4751 14.6347 37.1843 15.5983 37.19 16.6781L37.2497 26.0531C37.2682 28.8953 36.2321 31.6516 34.3347 33.8112C33.462 34.8024 32.3435 35.6538 30.9151 36.4152L25.8781 39.1079C25.7203 39.1909 25.5469 39.2338 25.3721 39.2352Z" fill="#0FE75F"/>
<mask id="mask0_93_7207" style="mask-type:alpha" maskUnits="userSpaceOnUse" x="13" y="11" width="25" height="29">
<path fill-rule="evenodd" clip-rule="evenodd" d="M24.8661 39.1134C25.0225 39.1951 25.1973 39.2366 25.3721 39.2352C25.5469 39.2338 25.7203 39.1909 25.8781 39.1079L30.9151 36.4152C32.3435 35.6538 33.462 34.8024 34.3347 33.8112C36.2321 31.6516 37.2682 28.8953 37.2497 26.0531L37.19 16.6781C37.1843 15.5983 36.4751 14.6347 35.4262 14.2845L26.0557 11.1406C25.4915 10.9495 24.8732 10.9537 24.3189 11.1503L14.984 14.4063C13.9408 14.7704 13.2443 15.7409 13.25 16.8221L13.3097 26.1902C13.3282 29.0365 14.3998 31.7803 16.3285 33.9178C17.2097 34.8952 18.3382 35.7341 19.7822 36.4831L24.8661 39.1134ZM23.5328 28.0949C23.7432 28.2971 24.0161 28.3967 24.2889 28.394C24.5618 28.3926 24.8333 28.2901 25.0408 28.0852L30.5454 22.6585C30.959 22.2501 30.9547 21.5939 30.5369 21.191C30.1176 20.7882 29.4425 20.7909 29.0289 21.1993L24.2733 25.8868L22.3262 24.0152C21.9069 23.6123 21.2332 23.6165 20.8182 24.0248C20.4046 24.4332 20.4089 25.0894 20.8281 25.4923L23.5328 28.0949Z" fill="black"/>
</mask>
<g mask="url(#mask0_93_7207)">
<rect x="25.6733" y="9.87061" width="15.8118" height="32.7529" fill="#0FBF4C"/>
</g>
<path d="M24.9339 27.5384C24.661 27.5411 24.3881 27.4415 24.1778 27.2393L21.4731 24.6367C21.0538 24.2338 21.0495 23.5776 21.4631 23.1693C21.8781 22.7609 22.5518 22.7567 22.9711 23.1596L24.9183 25.0312L29.6739 20.3437C30.0874 19.9353 30.7626 19.9326 31.1818 20.3354C31.5997 20.7383 31.6039 21.3945 31.1904 21.8029L25.6858 27.2296C25.4782 27.4345 25.2068 27.537 24.9339 27.5384Z" fill="white"/>
</svg>
