<svg width="40" height="41" viewBox="0 0 40 41" fill="none" xmlns="http://www.w3.org/2000/svg">
<path d="M20 38C29.665 38 37.5 30.165 37.5 20.5C37.5 10.835 29.665 3 20 3C10.335 3 2.5 10.835 2.5 20.5C2.5 30.165 10.335 38 20 38Z" fill="#FFB000" stroke="#FFF1D2" stroke-width="5"/>
<path d="M19.5 14V21.5L24.5 24" stroke="white" stroke-width="3.75" stroke-linecap="round"/>
</svg>
