<svg width="45" height="46" viewBox="0 0 45 46" fill="none" xmlns="http://www.w3.org/2000/svg">
<path d="M3.75 17.375V13.625C3.75 8 7.5 4.25 13.125 4.25H31.875C37.5 4.25 41.25 8 41.25 13.625V17.375" stroke="#3A76F0" stroke-width="3" stroke-miterlimit="10" stroke-linecap="round" stroke-linejoin="round"/>
<path d="M3.75 28.625V32.375C3.75 38 7.5 41.75 13.125 41.75H31.875C37.5 41.75 41.25 38 41.25 32.375V28.625" stroke="#3A76F0" stroke-width="3" stroke-miterlimit="10" stroke-linecap="round" stroke-linejoin="round"/>
<path d="M3.75 23H41.25" stroke="#3A76F0" stroke-width="3" stroke-miterlimit="10" stroke-linecap="round" stroke-linejoin="round"/>
</svg>
