<svg width="48" height="48" viewBox="0 0 48 48" fill="none" xmlns="http://www.w3.org/2000/svg">
<rect width="48" height="48" rx="12" fill="white"/>
<circle cx="24" cy="24" r="17.5" fill="url(#paint0_linear_190_31661)"/>
<path d="M32.7332 16.761C32.8891 15.7541 31.9318 14.9594 31.0365 15.3525L13.206 23.1811C12.564 23.4629 12.611 24.4353 13.2768 24.6474L16.9539 25.8183C17.6557 26.0418 18.4157 25.9263 19.0285 25.5029L27.3187 19.7753C27.5687 19.6026 27.8412 19.9581 27.6276 20.1783L21.6601 26.3308C21.0813 26.9276 21.1962 27.9389 21.8925 28.3756L28.5737 32.5654C29.3231 33.0353 30.2871 32.5632 30.4273 31.6577L32.7332 16.761Z" fill="white"/>
<defs>
<linearGradient id="paint0_linear_190_31661" x1="24" y1="6.5" x2="24" y2="41.5" gradientUnits="userSpaceOnUse">
<stop stop-color="#37BBFE"/>
<stop offset="1" stop-color="#007DBB"/>
</linearGradient>
</defs>
</svg>
